waveform.vcd
$version Generated by VerilatedVcd $end
$timescale 1ps $end
 $scope module TOP $end
  $var wire 1 a clk $end
  $var wire 1 b rst_n $end
  $var wire 1 c halt $end
  $scope module $unit $end
   $var wire 32 q INST_BYTE_SIZE [31:0] $end
  $upscope $end
  $scope module rv32i $end
   $var wire 32 n DATA_WIDTH [31:0] $end
   $var wire 32 o ADDR_WIDTH [31:0] $end
   $var wire 32 r BITS_FIT [31:0] $end
  $upscope $end
  $scope module top $end
   $var wire 1 a clk $end
   $var wire 1 b rst_n $end
   $var wire 1 c halt $end
   $var wire 32 d if_addr [31:0] $end
   $var wire 32 e data_addr [31:0] $end
   $var wire 32 f write_data [31:0] $end
   $var wire 1 g write_enable $end
   $var wire 3 h req_bytes [2:0] $end
   $var wire 32 " instr [31:0] $end
   $var wire 32 ) read_data [31:0] $end
   $var wire 1 i if_fault $end
   $var wire 1 * data_fault $end
   $scope module u_cpu $end
    $var wire 1 a clk $end
    $var wire 1 b rst_n $end
    $var wire 32 " instr_in [31:0] $end
    $var wire 32 ) data_in [31:0] $end
    $var wire 1 i if_fault $end
    $var wire 1 * data_fault $end
    $var wire 32 d if_addr [31:0] $end
    $var wire 32 e data_addr [31:0] $end
    $var wire 32 f data_out [31:0] $end
    $var wire 1 g write_en $end
    $var wire 3 h req_bytes [2:0] $end
    $var wire 1 c halt $end
    $var wire 1 i if_fault_out $end
    $var wire 32 " instr [31:0] $end
    $var wire 1 + w_enable $end
    $var wire 5 # rdst_addr [4:0] $end
    $var wire 32 j rdst_data [31:0] $end
    $var wire 5 $ rs1_addr [4:0] $end
    $var wire 5 % rs2_addr [4:0] $end
    $var wire 32 & rs1_data [31:0] $end
    $var wire 32 ' rs2_data [31:0] $end
    $var wire 32 ? pc [31:0] $end
    $var wire 1 , pc_in1_sel $end
    $var wire 1 - pc_in2_sel $end
    $var wire 1 . alu_or_mem_to_reg $end
    $var wire 1 / imm_to_reg $end
    $var wire 1 0 illegal_instr $end
    $var wire 32 k imm_val [31:0] $end
    $var wire 3 1 imm_type [2:0] $end
    $var wire 4 2 alu_op [3:0] $end
    $var wire 1 3 alu_in1_sel $end
    $var wire 1 4 alu_in2_sel $end
    $var wire 1 5 alu_zero $end
    $var wire 32 6 alu_out [31:0] $end
    $var wire 3 ( funct3 [2:0] $end
    $var wire 1 7 mem_read $end
    $var wire 1 8 mem_write $end
    $var wire 32 9 reg_write_data [31:0] $end
    $scope module u_alu $end
     $var wire 32 n DATA_WIDTH [31:0] $end
     $var wire 32 o ADDR_WIDTH [31:0] $end
     $var wire 4 2 alu_op [3:0] $end
     $var wire 32 & r_data1 [31:0] $end
     $var wire 32 ' r_data2 [31:0] $end
     $var wire 32 ? pc [31:0] $end
     $var wire 1 3 use_pc $end
     $var wire 32 k imm [31:0] $end
     $var wire 1 4 use_imm $end
     $var wire 32 6 alu_out [31:0] $end
     $var wire 1 5 out_zero $end
     $var wire 32 l data1 [31:0] $end
     $var wire 32 m data2 [31:0] $end
    $upscope $end
    $scope module u_decoder $end
     $var wire 32 n DATA_WIDTH [31:0] $end
     $var wire 32 o ADDR_WIDTH [31:0] $end
     $var wire 32 " instr [31:0] $end
     $var wire 1 5 alu_zero $end
     $var wire 4 2 alu_op [3:0] $end
     $var wire 1 3 alu_in1_ropc $end
     $var wire 1 4 alu_in2_roi $end
     $var wire 1 + reg_write $end
     $var wire 1 7 mem_read $end
     $var wire 1 8 mem_write $end
     $var wire 1 . mem_to_reg $end
     $var wire 1 / imm_to_reg $end
     $var wire 3 1 imm_type [2:0] $end
     $var wire 1 , pcinc_in1_pcor $end
     $var wire 1 - pcinc_in2_doi $end
     $var wire 1 0 illegal_instr $end
     $var wire 7 : opcode [6:0] $end
     $scope module unnamedblk1 $end
      $var wire 3 ; funct3 [2:0] $end
     $upscope $end
    $upscope $end
    $scope module u_fetch $end
     $var wire 32 n DATA_WIDTH [31:0] $end
     $var wire 32 ? pc_in [31:0] $end
     $var wire 32 " instr_in [31:0] $end
     $var wire 1 i is_not_found $end
     $var wire 32 d mem_fetch_addr [31:0] $end
     $var wire 32 " instr_out [31:0] $end
     $var wire 1 i mem_fault $end
    $upscope $end
    $scope module u_imm_gen $end
     $var wire 32 " instr [31:0] $end
     $var wire 3 1 imm_type [2:0] $end
     $var wire 32 k imm_out [31:0] $end
    $upscope $end
    $scope module u_lsu $end
     $var wire 32 n DATA_WIDTH [31:0] $end
     $var wire 3 ( funct3 [2:0] $end
     $var wire 32 6 alu_res [31:0] $end
     $var wire 1 7 is_mem_read $end
     $var wire 1 8 is_mem_write $end
     $var wire 32 ' rs2_in [31:0] $end
     $var wire 32 ) data_in [31:0] $end
     $var wire 32 e mem_addr [31:0] $end
     $var wire 1 g write_enable $end
     $var wire 32 f write_data [31:0] $end
     $var wire 3 h req_bytes [2:0] $end
     $var wire 32 9 reg_data [31:0] $end
    $upscope $end
    $scope module u_pc $end
     $var wire 1 a clk $end
     $var wire 1 b rst_n $end
     $var wire 1 , pcinc_in1_pcor $end
     $var wire 1 - pcinc_in2_doi $end
     $var wire 32 & rs1_in [31:0] $end
     $var wire 32 k imm_in [31:0] $end
     $var wire 32 ? pc_out [31:0] $end
     $var wire 32 ? pc [31:0] $end
     $var wire 32 < pc_next [31:0] $end
     $scope module unnamedblk1 $end
      $var wire 32 = in1 [31:0] $end
      $var wire 32 > in2 [31:0] $end
     $upscope $end
    $upscope $end
    $scope module u_reg_file $end
     $var wire 32 n DATA_WIDTH [31:0] $end
     $var wire 32 o ADDR_WIDTH [31:0] $end
     $var wire 1 a clk $end
     $var wire 1 b rst_n $end
     $var wire 1 + w_enable $end
     $var wire 5 # w_addr [4:0] $end
     $var wire 32 j w_data [31:0] $end
     $var wire 5 $ r_addr1 [4:0] $end
     $var wire 5 % r_addr2 [4:0] $end
     $var wire 32 & r_data1 [31:0] $end
     $var wire 32 ' r_data2 [31:0] $end
     $var wire 32 @ registers[31] [31:0] $end
     $var wire 32 A registers[30] [31:0] $end
     $var wire 32 B registers[29] [31:0] $end
     $var wire 32 C registers[28] [31:0] $end
     $var wire 32 D registers[27] [31:0] $end
     $var wire 32 E registers[26] [31:0] $end
     $var wire 32 F registers[25] [31:0] $end
     $var wire 32 G registers[24] [31:0] $end
     $var wire 32 H registers[23] [31:0] $end
     $var wire 32 I registers[22] [31:0] $end
     $var wire 32 J registers[21] [31:0] $end
     $var wire 32 K registers[20] [31:0] $end
     $var wire 32 L registers[19] [31:0] $end
     $var wire 32 M registers[18] [31:0] $end
     $var wire 32 N registers[17] [31:0] $end
     $var wire 32 O registers[16] [31:0] $end
     $var wire 32 P registers[15] [31:0] $end
     $var wire 32 Q registers[14] [31:0] $end
     $var wire 32 R registers[13] [31:0] $end
     $var wire 32 S registers[12] [31:0] $end
     $var wire 32 T registers[11] [31:0] $end
     $var wire 32 U registers[10] [31:0] $end
     $var wire 32 V registers[9] [31:0] $end
     $var wire 32 W registers[8] [31:0] $end
     $var wire 32 X registers[7] [31:0] $end
     $var wire 32 Y registers[6] [31:0] $end
     $var wire 32 Z registers[5] [31:0] $end
     $var wire 32 [ registers[4] [31:0] $end
     $var wire 32 \ registers[3] [31:0] $end
     $var wire 32 ] registers[2] [31:0] $end
     $var wire 32 ^ registers[1] [31:0] $end
     $var wire 32 _ registers[0] [31:0] $end
     $var wire 32 ` i [31:0] $end
    $upscope $end
   $upscope $end
   $scope module u_mem $end
    $var wire 32 p MEM_SIZE_BYTES [31:0] $end
    $var wire 1 a clk $end
    $var wire 32 d if_addr [31:0] $end
    $var wire 32 e lsu_addr [31:0] $end
    $var wire 3 h req_bytes [2:0] $end
    $var wire 32 " instr_out [31:0] $end
    $var wire 32 ) data_out [31:0] $end
    $var wire 1 g write_enable $end
    $var wire 32 f data_in [31:0] $end
    $var wire 1 i if_not_found $end
    $var wire 1 * lsu_not_found $end
    $var wire 32 q INST_SIZE_BYTES [31:0] $end
   $upscope $end
  $upscope $end
 $upscope $end
$enddefinitions $end


#0
b00010010000000000000000010010011 "
b00001 #
b00000 $
b00000 %
b00000000000000000000000000000000 &
b00000000000000000000000000000000 '
b000 (
b00000000000000000000000000000000 )
0*
1+
0,
0-
0.
0/
00
b000 1
b0000 2
03
14
05
b00000000000000000000000100100000 6
07
08
b00000000000000000000000000000000 9
b0010011 :
b000 ;
b00000000000000000000000000000100 <
b00000000000000000000000000000000 =
b00000000000000000000000000000100 >
b00000000000000000000000000000000 ?
b00000000000000000000000000000000 @
b00000000000000000000000000000000 A
b00000000000000000000000000000000 B
b00000000000000000000000000000000 C
b00000000000000000000000000000000 D
b00000000000000000000000000000000 E
b00000000000000000000000000000000 F
b00000000000000000000000000000000 G
b00000000000000000000000000000000 H
b00000000000000000000000000000000 I
b00000000000000000000000000000000 J
b00000000000000000000000000000000 K
b00000000000000000000000000000000 L
b00000000000000000000000000000000 M
b00000000000000000000000000000000 N
b00000000000000000000000000000000 O
b00000000000000000000000000000000 P
b00000000000000000000000000000000 Q
b00000000000000000000000000000000 R
b00000000000000000000000000000000 S
b00000000000000000000000000000000 T
b00000000000000000000000000000000 U
b00000000000000000000000000000000 V
b00000000000000000000000000000000 W
b00000000000000000000000000000000 X
b00000000000000000000000000000000 Y
b00000000000000000000000000000000 Z
b00000000000000000000000000000000 [
b00000000000000000000000000000000 \
b00000000000000000000000000000000 ]
b00000000000000000000000000000000 ^
b00000000000000000000000000000000 _
b00000000000000000000000000000000 `
0a
0b
0c
b00000000000000000000000000000000 d
b00000000000000000000000100100000 e
b00000000000000000000000000000000 f
0g
b001 h
0i
b00000000000000000000000100100000 j
b00000000000000000000000100100000 k
b00000000000000000000000000000000 l
b00000000000000000000000100100000 m
b00000000000000000000000000100000 n
b00000000000000000000000000000101 o
b00000000000000100000000000000000 p
b00000000000000000000000000000100 q
b00000000000000000000000000000011 r
#1
1b
#2
b00000001001000000000000100010011 "
b00010 #
b10010 %
b00000000000000000000000000100000 )
b00000000000000000000000000010010 6
b00000000000000000000000000100000 9
b00000000000000000000000000001000 <
b00000000000000000000000000000100 =
b00000000000000000000000000000100 ?
b00000000000000000000000100100000 ^
1a
b00000000000000000000000000000100 d
b00000000000000000000000000010010 e
b00000000000000000000000000010010 j
b00000000000000000000000000010010 k
b00000000000000000000000000010010 m
#3
0a
#4
b00000000001000001000000000100011 "
b00000 #
b00001 $
b00010 %
b00000000000000000000000100100000 &
b00000000000000000000000000010010 '
b00000000000000000000000000000000 )
0+
b001 1
b00000000000000000000000100100000 6
18
b00000000000000000000000000000000 9
b0100011 :
b00000000000000000000000000001100 <
b00000000000000000000000000001000 =
b00000000000000000000000000001000 ?
b00000000000000000000000000010010 ]
1a
b00000000000000000000000000001000 d
b00000000000000000000000100100000 e
b00000000000000000000000000010010 f
1g
b00000000000000000000000100100000 j
b00000000000000000000000000000000 k
b00000000000000000000000100100000 l
b00000000000000000000000000000000 m
#5
0a
#6
b00000011010000000000000100010011 "
b00010 #
b00000 $
b10100 %
b00000000000000000000000000000000 &
b00000000000000000000000000000000 '
1+
b000 1
b00000000000000000000000000110100 6
08
b0010011 :
b00000000000000000000000000010000 <
b00000000000000000000000000001100 =
b00000000000000000000000000001100 ?
1a
b00000000000000000000000000001100 d
b00000000000000000000000000110100 e
b00000000000000000000000000000000 f
0g
b00000000000000000000000000110100 j
b00000000000000000000000000110100 k
b00000000000000000000000000000000 l
b00000000000000000000000000110100 m
#7
0a
#8
b00000000001000001000000010100011 "
b00001 #
b00001 $
b00010 %
b00000000000000000000000100100000 &
b00000000000000000000000000110100 '
0+
b001 1
b00000000000000000000000100100001 6
18
b0100011 :
b00000000000000000000000000010100 <
b00000000000000000000000000010000 =
b00000000000000000000000000010000 ?
b00000000000000000000000000110100 ]
1a
b00000000000000000000000000010000 d
b00000000000000000000000100100001 e
b00000000000000000000000000110100 f
1g
b00000000000000000000000100100001 j
b00000000000000000000000000000001 k
b00000000000000000000000100100000 l
b00000000000000000000000000000001 m
#9
0a
#10
b00000000000000001001000110000011 "
b00011 #
b00000 %
b00000000000000000000000000000000 '
b001 (
b00000000000000000011010000010010 )
1+
1.
b000 1
b00000000000000000000000100100000 6
17
08
b00000000000000000011010000010010 9
b0000011 :
b00000000000000000000000000011000 <
b00000000000000000000000000010100 =
b00000000000000000000000000010100 ?
1a
b00000000000000000000000000010100 d
b00000000000000000000000100100000 e
b00000000000000000000000000000000 f
0g
b010 h
b00000000000000000011010000010010 j
b00000000000000000000000000000000 k
b00000000000000000000000000000000 m
#11
0a
#12
b00000000000000000000000000000000 "
b00000 #
b00000 $
b00000000000000000000000000000000 &
b000 (
b00000000000000000000000010010011 )
0+
0.
10
b101 1
15
b00000000000000000000000000000000 6
07
b11111111111111111111111110010011 9
b0000000 :
b00000000000000000000000000011100 <
b00000000000000000000000000011000 =
b00000000000000000000000000011000 ?
b00000000000000000011010000010010 \
1a
1c
b00000000000000000000000000011000 d
b00000000000000000000000000000000 e
b001 h
b00000000000000000000000000000000 j
b00000000000000000000000000000000 l
